{
  "buttons":
  [ 
    { "class":"btn-default btn-edit", "icon":"fa fa-pencil", "title":"Editar datos", "access":1 },
    { "class":"btn-default btn-chart", "icon":"fa fa-area-chart", "title":"Ver resultados", "access":1 }
  ],
  "columns":
  [
    { "title":"ID", "data":"institucion_id", "visible":false, "access":1 },
    { "title":"Rut", "data":"institucion_rut", "access":1 },
    { "title":"Nombre", "data":"institucion_nombre", "access":1 },
    { "title":"Subvención", "data":"tiposub_nombre", "access":1 },
    { "title":"Comuna", "data":"comuna_nombre", "access":1 }
  ],
  "filters":
  [
    { "data":3, "access":1 },
    { "data":4, "access":1 }
  ]
}
