[
  { 
    "class": "col-sm-3", "label": "Plan",
    "tag": "select", "uri": "planes/json", "name": "plan_id",
    "option": "plan_nombre", "attributes": " required"
  },
  { 
    "class": "col-sm-3", "label": "Institucion",
    "tag": "select", "uri": "instituciones/json", "name": "institucion_id",
    "option": "institucion_nombre", "attributes": " required"
  },
  { 
    "class":"col-sm-6", "label":"Representante", 
    "tag":"input", "type":"text", 
    "name":"contrato_representante", "placeholder":"Nombre", "attributes":" required"
  },
  { 
    "class":"col-sm-3", "label":"Inicio", 
    "tag":"input", "type":"text", 
    "name":"contrato_inicio", "placeholder":"Nombre", "attributes":" required"
  },
  { 
    "class":"col-sm-3", "label":"Final", 
    "tag":"input", "type":"text", 
    "name":"contrato_fin", "placeholder":"Nombre", "attributes":" required"
  }
]