[
  { 
    "class": "col-sm-3", "label": "Institucion",
    "tag": "select", "uri": "instituciones/json", "name": "institucion_id",
    "option": "institucion_nombre", "attributes": " required"
  },
  { 
    "class":"col-sm-9", "label":"Identificador", 
    "tag":"input", "type":"text", 
    "name":"grupo_identificador", "placeholder":"Identificador del grupo", "attributes":" required"
  }
]