[
  { 
    "class":"col-sm-3", "label":"Rut", "disabled":2,
    "tag":"input", "type":"text", 
    "name":"institucion_rut", "placeholder":"Nombres", "attributes":" required"
  },
  { 
    "class":"col-sm-4", "label":"Nombre", "disabled":2,
    "tag":"input", "type":"text", 
    "name":"institucion_nombre", "placeholder":"Apellido Paterno", "attributes":" required"
  },
  { 
    "class":"col-sm-5", "label":"Razon social", "disabled":2,
    "tag":"input", "type":"text", 
    "name":"institucion_razonsocial", "placeholder":"Apellido Materno", "attributes":" required"
  },
  { 
    "class":"col-sm-6", "label":"Direccion", "disabled":2,
    "tag":"input", "type":"text", 
    "name":"institucion_direccion", "placeholder":"12345678-9", "attributes":" required"
  },
  { 
    "class": "col-sm-3", "label": "Comuna", "disabled":2,
    "tag": "select", "uri": "recursos/comuna/json", "name": "comuna_id",
    "option": "comuna_nombre", "attributes": " required"
  },
  { 
    "class": "col-sm-3", "label": "Subvencion", "disabled":2,
    "tag": "select", "uri": "subvenciones/json", "name": "tiposub_id",
    "option": "tiposub_nombre", "attributes": " required"
  },
  { 
    "class":"col-sm-6", "label":"Imagen", "disabled":2,
    "tag":"input", "type":"file", 
    "name":"institucion_imagen_url", "placeholder":"", "attributes":""
  }
]