{
  "buttons":"diagnostico_id",
  "columns":
  [
    { "title":"#", "data":"diagnostico_id", "visible":false },
    { "title":"Nombre", "data":"diagnostico_nombre" },
    { "title":"Tipo", "data":"tipod_nombre" },
    { 
      "targets": -1, "data": null,
      "defaultContent": "<div class='btn-group btn-group-xs' role='group' aria-label='...'><button type='button' class='btn btn-default btn-edit'><i class='fa fa-pencil' aria-hidden='true'></i></button><button type='button' class='btn btn-default btn-chart'><i class='fa fa-bar-chart' aria-hidden='true'></i></button></div>"
    }
  ],
  "filters":
  [
    2
  ]
}